Lab/lp/simulation/qsim/Lab2.msim.vcd
$comment
	File created using the following command:
		vcd file Lab2.msim.vcd -direction
$end
$date
	Thu Jan 25 18:58:19 2018
$end
$version
	ModelSim Version 10.4b
$end
$timescale
	1ps
$end

$scope module LogicalStep_Lab2_top_vlg_vec_tst $end
$var reg 1 ! clkin_50 $end
$var reg 4 " pb [3:0] $end
$var reg 8 # sw [7:0] $end
$var wire 1 $ leds [7] $end
$var wire 1 % leds [6] $end
$var wire 1 & leds [5] $end
$var wire 1 ' leds [4] $end
$var wire 1 ( leds [3] $end
$var wire 1 ) leds [2] $end
$var wire 1 * leds [1] $end
$var wire 1 + leds [0] $end
$var wire 1 , seg7_char1 $end
$var wire 1 - seg7_char2 $end
$var wire 1 . seg7_data [6] $end
$var wire 1 / seg7_data [5] $end
$var wire 1 0 seg7_data [4] $end
$var wire 1 1 seg7_data [3] $end
$var wire 1 2 seg7_data [2] $end
$var wire 1 3 seg7_data [1] $end
$var wire 1 4 seg7_data [0] $end

$scope module i1 $end
$var wire 1 5 gnd $end
$var wire 1 6 vcc $end
$var wire 1 7 unknown $end
$var tri1 1 8 devclrn $end
$var tri1 1 9 devpor $end
$var tri1 1 : devoe $end
$var wire 1 ; clkin_50~input_o $end
$var wire 1 < pb[0]~input_o $end
$var wire 1 = pb[1]~input_o $end
$var wire 1 > pb[2]~input_o $end
$var wire 1 ? pb[3]~input_o $end
$var wire 1 @ sw[4]~input_o $end
$var wire 1 A sw[5]~input_o $end
$var wire 1 B sw[6]~input_o $end
$var wire 1 C sw[7]~input_o $end
$var wire 1 D ~QUARTUS_CREATED_GND~I_combout $end
$var wire 1 E sw[1]~input_o $end
$var wire 1 F sw[2]~input_o $end
$var wire 1 G sw[3]~input_o $end
$var wire 1 H sw[0]~input_o $end
$var wire 1 I INST1|Mux6~0_combout $end
$var wire 1 J INST1|Mux5~0_combout $end
$var wire 1 K INST1|Mux4~0_combout $end
$var wire 1 L INST1|Mux3~0_combout $end
$var wire 1 M INST1|Mux2~0_combout $end
$var wire 1 N INST1|Mux1~0_combout $end
$var wire 1 O INST1|Mux0~0_combout $end
$upscope $end
$upscope $end
$enddefinitions $end
#0
$dumpvars
x!
bx "
bx0000 #
0+
0*
0)
0(
0'
0&
0%
0$
0,
0-
14
13
12
11
10
1/
0.
05
16
x7
18
19
1:
x;
x<
x=
x>
x?
x@
xA
xB
xC
0D
0E
0F
0G
0H
0I
0J
0K
0L
0M
0N
0O
$end
#50000
bx0001 #
1H
1N
1M
1L
1I
04
01
00
0/
#100000
bx0011 #
bx0010 #
0H
1E
0M
0L
1K
0I
1O
1.
14
02
11
10
#150000
bx0011 #
1H
1M
0K
12
00
#200000
bx0111 #
bx0101 #
bx0100 #
0H
0E
1F
0N
1L
1I
04
01
1/
#250000
bx0101 #
1H
0L
1J
0I
14
03
11
#300000
bx0111 #
bx0110 #
0H
1E
0M
10
#350000
bx0111 #
1H
1N
1M
1L
0J
0O
0.
13
01
00
0/
#400000
bx1111 #
bx1011 #
bx1001 #
bx1000 #
0H
0E
0F
1G
0N
0M
0L
1O
1.
11
10
1/
#450000
bx1001 #
1H
1M
00
#500000
bx1011 #
bx1010 #
0H
1E
0M
1L
01
10
#550000
bx1011 #
1H
0L
1J
1I
04
03
11
#600000
bx1111 #
bx1101 #
bx1100 #
0H
0E
1F
1N
1K
02
0/
#650000
bx1101 #
1H
0K
0J
13
12
#700000
bx1111 #
bx1110 #
0H
1E
0N
1K
1J
0I
14
03
02
1/
#750000
bx1111 #
1H
1L
01
#800000
bx0111 #
bx0011 #
bx0001 #
bx0000 #
0H
0E
0F
0G
0L
0K
0J
0O
0.
13
12
11
#850000
bx0001 #
1H
1N
1M
1L
1I
04
01
00
0/
#900000
bx0011 #
bx0010 #
0H
1E
0M
0L
1K
0I
1O
1.
14
02
11
10
#950000
bx0011 #
1H
1M
0K
12
00
