Lab/Lab3/simulation/qsim/LogicalStep_Lab3.msim.vcd
$comment
	File created using the following command:
		vcd file LogicalStep_Lab3.msim.vcd -direction
$end
$date
	Sun Mar 04 17:22:16 2018
$end
$version
	ModelSim Version 10.4b
$end
$timescale
	1ps
$end

$scope module LogicalStep_Lab3_top_vlg_vec_tst $end
$var reg 1 ! clkin_50 $end
$var reg 4 " pb [3:0] $end
$var reg 8 # sw [7:0] $end
$var wire 1 $ leds [7] $end
$var wire 1 % leds [6] $end
$var wire 1 & leds [5] $end
$var wire 1 ' leds [4] $end
$var wire 1 ( leds [3] $end
$var wire 1 ) leds [2] $end
$var wire 1 * leds [1] $end
$var wire 1 + leds [0] $end
$var wire 1 , seg7_char1 $end
$var wire 1 - seg7_char2 $end
$var wire 1 . seg7_data [6] $end
$var wire 1 / seg7_data [5] $end
$var wire 1 0 seg7_data [4] $end
$var wire 1 1 seg7_data [3] $end
$var wire 1 2 seg7_data [2] $end
$var wire 1 3 seg7_data [1] $end
$var wire 1 4 seg7_data [0] $end

$scope module i1 $end
$var wire 1 5 gnd $end
$var wire 1 6 vcc $end
$var wire 1 7 unknown $end
$var tri1 1 8 devclrn $end
$var tri1 1 9 devpor $end
$var tri1 1 : devoe $end
$var wire 1 ; clkin_50~input_o $end
$var wire 1 < pb[0]~input_o $end
$var wire 1 = pb[1]~input_o $end
$var wire 1 > pb[2]~input_o $end
$var wire 1 ? pb[3]~input_o $end
$var wire 1 @ leds[0]~output_o $end
$var wire 1 A leds[1]~output_o $end
$var wire 1 B leds[2]~output_o $end
$var wire 1 C leds[3]~output_o $end
$var wire 1 D leds[4]~output_o $end
$var wire 1 E leds[5]~output_o $end
$var wire 1 F leds[6]~output_o $end
$var wire 1 G leds[7]~output_o $end
$var wire 1 H seg7_data[0]~output_o $end
$var wire 1 I seg7_data[1]~output_o $end
$var wire 1 J seg7_data[2]~output_o $end
$var wire 1 K seg7_data[3]~output_o $end
$var wire 1 L seg7_data[4]~output_o $end
$var wire 1 M seg7_data[5]~output_o $end
$var wire 1 N seg7_data[6]~output_o $end
$var wire 1 O seg7_char1~output_o $end
$var wire 1 P seg7_char2~output_o $end
$var wire 1 Q sw[1]~input_o $end
$var wire 1 R sw[5]~input_o $end
$var wire 1 S sw[0]~input_o $end
$var wire 1 T sw[4]~input_o $end
$var wire 1 U Comp4Inst|b0|eo~0_combout $end
$var wire 1 V sw[3]~input_o $end
$var wire 1 W sw[2]~input_o $end
$var wire 1 X sw[6]~input_o $end
$var wire 1 Y sw[7]~input_o $end
$var wire 1 Z Comp4Inst|b0|go~0_combout $end
$var wire 1 [ Comp4Inst|b0|eo~combout $end
$var wire 1 \ Comp4Inst|b0|go~1_combout $end
$var wire 1 ] Comp4Inst|b0|go~2_combout $end
$var wire 1 ^ Comp4Inst|b0|go~3_combout $end
$upscope $end
$upscope $end
$enddefinitions $end
#0
$dumpvars
x!
bx "
b0 #
1+
1*
0)
0(
0'
0&
0%
0$
0,
0-
04
03
02
01
00
0/
0.
05
16
x7
18
19
1:
x;
x<
x=
x>
x?
1@
1A
0B
0C
0D
0E
0F
0G
0H
0I
0J
0K
0L
0M
0N
0O
0P
0Q
0R
0S
0T
0U
0V
0W
0X
0Y
1Z
0[
0\
0]
0^
$end
#50000
b1 #
1S
1]
1U
1[
1^
1B
0A
0*
1)
#60000
b10001 #
1T
0]
0U
0[
0^
0B
1A
1*
0)
#100000
b10011 #
b10010 #
1Q
0S
1]
1U
1[
1^
1B
0A
0*
1)
#120000
b110010 #
b100010 #
1R
0T
0]
0U
0[
0^
0B
1A
1*
0)
#150000
b100011 #
1S
1]
1U
1[
1^
1B
0A
0*
1)
#180000
b110011 #
1T
0]
0U
0[
0^
0B
1A
1*
0)
#200000
b110111 #
b110101 #
b110100 #
1W
0Q
0S
1\
0Z
1U
1[
1^
1B
0A
0*
1)
#240000
b1110100 #
b1010100 #
b1000100 #
1X
0R
0T
0\
1Z
0U
0[
0^
0B
1A
1*
0)
#250000
b1000101 #
1S
1]
1U
1[
1^
1B
0A
0*
1)
#300000
b1000111 #
b1010111 #
b1010110 #
1T
1Q
0S
#350000
b1010111 #
1S
#360000
b1110111 #
b1100111 #
1R
0T
#400000
b1101111 #
b1101011 #
b1101001 #
b1101000 #
1V
0W
0Q
0S
1\
0Z
0]
#420000
b1111000 #
1T
#450000
b1111001 #
1S
#480000
b11111001 #
b10111001 #
b10011001 #
b10001001 #
1Y
0X
0R
0T
0\
1Z
1]
#500000
b10001011 #
b10001010 #
1Q
0S
#540000
b10011010 #
1T
#550000
b10011011 #
1S
#600000
b10011111 #
b10111111 #
b10111101 #
b10101101 #
b10101100 #
1R
0T
1W
0Q
0S
0]
1\
0Z
#650000
b10101101 #
1S
#660000
b10111101 #
1T
#700000
b10111111 #
b10111110 #
1Q
0S
#720000
b11111110 #
b11011110 #
b11001110 #
1X
0R
0T
0\
1Z
1]
#750000
b11001111 #
1S
#780000
b11011111 #
1T
#800000
b11010111 #
b11010011 #
b11010001 #
b11010000 #
0V
0W
0Q
0S
0Z
0]
0^
0B
0)
#840000
b11110000 #
b11100000 #
1R
0T
#850000
b11100001 #
1S
#900000
b11100011 #
b11110011 #
b11110010 #
1T
1Q
0S
#950000
b11110011 #
1S
0U
#960000
b1110011 #
b110011 #
b10011 #
b11 #
0Y
0X
0R
0T
1Z
1]
1U
1^
1B
1)
