Lab/Lab3/simulation/qsim/LogicalStep_Lab3.msim.vcd
$comment
	File created using the following command:
		vcd file LogicalStep_Lab3.msim.vcd -direction
$end
$date
	Fri Mar 09 13:27:29 2018
$end
$version
	ModelSim Version 10.4b
$end
$timescale
	1ps
$end

$scope module LogicalStep_Lab3_top_vlg_vec_tst $end
$var reg 1 ! clkin_50 $end
$var reg 4 " pb [3:0] $end
$var reg 8 # sw [7:0] $end
$var wire 1 $ leds [7] $end
$var wire 1 % leds [6] $end
$var wire 1 & leds [5] $end
$var wire 1 ' leds [4] $end
$var wire 1 ( leds [3] $end
$var wire 1 ) leds [2] $end
$var wire 1 * leds [1] $end
$var wire 1 + leds [0] $end
$var wire 1 , seg7_char1 $end
$var wire 1 - seg7_char2 $end
$var wire 1 . seg7_data [6] $end
$var wire 1 / seg7_data [5] $end
$var wire 1 0 seg7_data [4] $end
$var wire 1 1 seg7_data [3] $end
$var wire 1 2 seg7_data [2] $end
$var wire 1 3 seg7_data [1] $end
$var wire 1 4 seg7_data [0] $end

$scope module i1 $end
$var wire 1 5 gnd $end
$var wire 1 6 vcc $end
$var wire 1 7 unknown $end
$var tri1 1 8 devclrn $end
$var tri1 1 9 devpor $end
$var tri1 1 : devoe $end
$var wire 1 ; pb[3]~input_o $end
$var wire 1 < ~QUARTUS_CREATED_GND~I_combout $end
$var wire 1 = ~QUARTUS_CREATED_UNVM~~busy $end
$var wire 1 > ~QUARTUS_CREATED_ADC1~~eoc $end
$var wire 1 ? seg7_data[1]~output_o $end
$var wire 1 @ seg7_data[5]~output_o $end
$var wire 1 A seg7_data[6]~output_o $end
$var wire 1 B leds[0]~output_o $end
$var wire 1 C leds[1]~output_o $end
$var wire 1 D leds[2]~output_o $end
$var wire 1 E leds[3]~output_o $end
$var wire 1 F leds[4]~output_o $end
$var wire 1 G leds[5]~output_o $end
$var wire 1 H leds[6]~output_o $end
$var wire 1 I leds[7]~output_o $end
$var wire 1 J seg7_data[0]~output_o $end
$var wire 1 K seg7_data[2]~output_o $end
$var wire 1 L seg7_data[3]~output_o $end
$var wire 1 M seg7_data[4]~output_o $end
$var wire 1 N seg7_char1~output_o $end
$var wire 1 O seg7_char2~output_o $end
$var wire 1 P sw[1]~input_o $end
$var wire 1 Q sw[2]~input_o $end
$var wire 1 R sw[0]~input_o $end
$var wire 1 S sw[3]~input_o $end
$var wire 1 T sevenmux2|Mux5~0_combout $end
$var wire 1 U sw[6]~input_o $end
$var wire 1 V sw[4]~input_o $end
$var wire 1 W sw[7]~input_o $end
$var wire 1 X sw[5]~input_o $end
$var wire 1 Y sevenmux1|Mux5~0_combout $end
$var wire 1 Z clkin_50~input_o $end
$var wire 1 [ clkin_50~inputclkctrl_outclk $end
$var wire 1 \ display|clk_proc:COUNT[0]~0_combout $end
$var wire 1 ] display|clk_proc:COUNT[0]~q $end
$var wire 1 ^ display|clk_proc:COUNT[1]~1_combout $end
$var wire 1 _ display|clk_proc:COUNT[1]~q $end
$var wire 1 ` display|clk_proc:COUNT[1]~2 $end
$var wire 1 a display|clk_proc:COUNT[2]~1_combout $end
$var wire 1 b display|clk_proc:COUNT[2]~q $end
$var wire 1 c display|clk_proc:COUNT[2]~2 $end
$var wire 1 d display|clk_proc:COUNT[3]~1_combout $end
$var wire 1 e display|clk_proc:COUNT[3]~q $end
$var wire 1 f display|clk_proc:COUNT[3]~2 $end
$var wire 1 g display|clk_proc:COUNT[4]~1_combout $end
$var wire 1 h display|clk_proc:COUNT[4]~q $end
$var wire 1 i display|clk_proc:COUNT[4]~2 $end
$var wire 1 j display|clk_proc:COUNT[5]~1_combout $end
$var wire 1 k display|clk_proc:COUNT[5]~q $end
$var wire 1 l display|clk_proc:COUNT[5]~2 $end
$var wire 1 m display|clk_proc:COUNT[6]~1_combout $end
$var wire 1 n display|clk_proc:COUNT[6]~q $end
$var wire 1 o display|clk_proc:COUNT[6]~2 $end
$var wire 1 p display|clk_proc:COUNT[7]~1_combout $end
$var wire 1 q display|clk_proc:COUNT[7]~q $end
$var wire 1 r display|clk_proc:COUNT[7]~2 $end
$var wire 1 s display|clk_proc:COUNT[8]~1_combout $end
$var wire 1 t display|clk_proc:COUNT[8]~q $end
$var wire 1 u display|clk_proc:COUNT[8]~2 $end
$var wire 1 v display|clk_proc:COUNT[9]~1_combout $end
$var wire 1 w display|clk_proc:COUNT[9]~q $end
$var wire 1 x display|clk_proc:COUNT[9]~2 $end
$var wire 1 y display|clk_proc:COUNT[10]~1_combout $end
$var wire 1 z display|clk_proc:COUNT[10]~q $end
$var wire 1 { display|DOUT_TEMP[1]~0_combout $end
$var wire 1 | sevenmux1|Mux1~0_combout $end
$var wire 1 } sevenmux2|Mux1~0_combout $end
$var wire 1 ~ display|DOUT_TEMP[5]~1_combout $end
$var wire 1 !! sevenmux2|Mux0~0_combout $end
$var wire 1 "! sevenmux1|Mux0~0_combout $end
$var wire 1 #! display|DOUT_TEMP[6]~2_combout $end
$var wire 1 $! thermostatInstance|compx4inst|GT~1_combout $end
$var wire 1 %! thermostatInstance|compx4inst|GT~2_combout $end
$var wire 1 &! thermostatInstance|compx4inst|GT~0_combout $end
$var wire 1 '! thermostatInstance|compx4inst|GT~3_combout $end
$var wire 1 (! thermostatInstance|compx4inst|EQ~0_combout $end
$var wire 1 )! thermostatInstance|compx4inst|EQ~combout $end
$var wire 1 *! pb[1]~input_o $end
$var wire 1 +! pb[0]~input_o $end
$var wire 1 ,! pb[2]~input_o $end
$var wire 1 -! thermostatInstance|all_closed~0_combout $end
$var wire 1 .! thermostatInstance|compx4inst|LE~0_combout $end
$var wire 1 /! thermostatInstance|compx4inst|LE~1_combout $end
$var wire 1 0! thermostatInstance|compx4inst|LE~2_combout $end
$var wire 1 1! thermostatInstance|Mux3~0_combout $end
$var wire 1 2! thermostatInstance|Mux2~2_combout $end
$var wire 1 3! thermostatInstance|Mux1~0_combout $end
$var wire 1 4! thermostatInstance|Mux0~0_combout $end
$var wire 1 5! sevenmux2|Mux6~0_combout $end
$var wire 1 6! sevenmux1|Mux6~0_combout $end
$var wire 1 7! display|DOUT[0]~0_combout $end
$var wire 1 8! sevenmux2|Mux4~0_combout $end
$var wire 1 9! sevenmux1|Mux4~0_combout $end
$var wire 1 :! display|DOUT[2]~2_combout $end
$var wire 1 ;! sevenmux1|Mux3~0_combout $end
$var wire 1 <! sevenmux2|Mux3~0_combout $end
$var wire 1 =! display|DOUT[3]~3_combout $end
$var wire 1 >! sevenmux1|Mux2~0_combout $end
$var wire 1 ?! sevenmux2|Mux2~0_combout $end
$var wire 1 @! display|DOUT[4]~4_combout $end
$upscope $end
$upscope $end
$enddefinitions $end
#0
$dumpvars
x!
bx "
b0 #
0+
1*
0)
0(
x'
x&
x%
0$
0,
1-
14
z3
12
11
10
z/
0.
05
16
x7
18
19
1:
x;
0<
z=
z>
z?
z@
0A
0B
1C
0D
0E
xF
xG
xH
0I
1J
1K
1L
1M
0N
1O
0P
0Q
0R
0S
0T
0U
0V
0W
0X
0Y
xZ
x[
1\
0]
0^
0_
0`
0a
0b
1c
0d
0e
0f
0g
0h
1i
0j
0k
0l
0m
0n
1o
0p
0q
0r
0s
0t
1u
0v
0w
0x
0y
0z
1{
0|
0}
1~
0!!
0"!
0#!
0$!
0%!
1&!
0'!
0(!
0)!
x*!
x+!
x,!
x-!
0.!
0/!
00!
01!
12!
03!
04!
05!
06!
07!
08!
09!
0:!
0;!
0<!
0=!
0>!
0?!
0@!
$end
#35000
b10000 #
1V
1>!
1;!
16!
1/!
1(!
1|
10!
1)!
02!
0C
0*
x4!
x1!
xB
xE
x(
x+
#50000
b10001 #
1R
1?!
1<!
15!
0/!
0(!
1}
1@!
1=!
17!
00!
0)!
0~
0@
0J
0L
0M
00
01
04
0/
04!
12!
01!
0B
1C
0E
0(
1*
0+
#70000
b110001 #
b100001 #
1X
0V
0>!
0;!
19!
06!
1/!
1(!
1"!
10!
1)!
02!
0C
0*
x4!
x1!
xB
xE
x(
x+
#100000
b100011 #
b100010 #
1P
0R
0?!
0<!
18!
05!
0/!
0(!
1!!
0@!
0=!
1:!
07!
00!
0)!
1#!
zA
1J
0K
1L
1M
10
11
02
14
z.
04!
12!
01!
0B
1C
0E
0(
1*
0+
#105000
b110010 #
1V
1>!
09!
1/!
1(!
10!
1)!
02!
0C
0*
x4!
x1!
xB
xE
x(
x+
#140000
b1110010 #
b1010010 #
b1000010 #
1U
0X
0V
1;!
16!
1.!
0&!
0|
0/!
1%!
#150000
b1000011 #
1R
1?!
08!
1@!
0:!
1K
0M
00
12
#175000
b1010011 #
1V
0;!
06!
1Y
#200000
b1010111 #
b1010101 #
b1010100 #
1Q
0P
0R
1<!
15!
0.!
1&!
0}
1/!
0%!
1=!
17!
1~
z@
0J
0L
01
04
z/
#210000
b1110100 #
b1100100 #
1X
0V
0>!
#245000
b1110100 #
1V
1>!
1;!
0"!
1|
0Y
#250000
b1110101 #
1R
0<!
05!
1T
0=!
07!
0{
0?
1J
1L
11
14
03
#280000
b11110101 #
b10110101 #
b10010101 #
b10000101 #
1W
0U
0X
0V
0>!
0;!
1.!
0&!
1"!
0|
0/!
1%!
#300000
b10000111 #
b10000110 #
1P
0R
0?!
0@!
1M
10
#315000
b10010110 #
1V
1>!
#350000
b10110110 #
b10110111 #
b10100111 #
1X
0V
1R
0>!
1;!
1?!
1<!
0!!
1}
0T
1@!
1=!
0#!
0~
1{
z?
0@
0A
0L
0M
00
01
0.
0/
z3
#385000
b10110111 #
1V
0;!
16!
0(!
0%!
1Y
#400000
b10111111 #
b10111011 #
b10111001 #
b10111000 #
1S
0Q
0P
0R
0?!
0<!
0.!
1&!
1!!
0}
1/!
1(!
0@!
0=!
1#!
1~
z@
zA
1L
1M
10
11
z.
z/
#420000
b11111000 #
b11011000 #
b11001000 #
1U
0X
0V
19!
1.!
0&!
1|
0/!
0(!
#450000
b11001001 #
1R
1?!
1(!
1%!
1@!
0M
00
#455000
b11011001 #
1V
09!
0(!
0%!
0Y
#490000
b11111001 #
b11101001 #
1X
0V
19!
06!
1/!
1(!
0|
1Y
#500000
b11101011 #
b11101010 #
1P
0R
0?!
1<!
0/!
0(!
0@!
1=!
0L
1M
10
01
#525000
b11111010 #
1V
1;!
1/!
1(!
#550000
b11111011 #
1R
0<!
15!
0/!
0(!
1T
0=!
17!
0{
0?
0J
1L
11
04
03
#560000
b1111011 #
b111011 #
b11011 #
b1011 #
0W
0U
0X
0V
0;!
09!
0.!
1$!
0"!
0Y
1(!
1%!
00!
1'!
x3!
01!
0B
xD
x)
0+
#595000
b11011 #
1V
1>!
1;!
16!
1|
#600000
b11111 #
b11101 #
b11100 #
1Q
0P
0R
18!
1}
1/!
0%!
1:!
0~
0@
0K
02
0/
#630000
b111100 #
b101100 #
1X
0V
0>!
0;!
19!
06!
1"!
#650000
b101101 #
1R
08!
0T
0:!
1{
z?
1K
12
z3
#665000
b111101 #
1V
1>!
09!
#700000
b1111101 #
b1111111 #
b1011111 #
b1011110 #
b1001110 #
1U
0X
0V
1P
0R
1;!
16!
0|
0/!
1%!
18!
05!
0}
1T
07!
1:!
1~
0{
0?
z@
0K
1J
14
02
z/
03
#735000
b1011110 #
1V
0;!
06!
1Y
#750000
b1011111 #
1R
1<!
1=!
0L
01
#770000
b1111111 #
b1101111 #
1X
0V
0>!
#800000
b1100111 #
b1100011 #
b1100001 #
b1100000 #
0S
0Q
0P
0R
0<!
08!
1.!
0$!
0!!
0T
1/!
0%!
0=!
0:!
10!
0'!
0#!
1{
z?
0A
1K
1L
11
12
0.
z3
03!
x1!
xB
0D
0)
x+
#805000
b1110000 #
1V
1>!
1;!
0"!
1|
0Y
#840000
b11110000 #
b10110000 #
b10010000 #
b10000000 #
1W
0U
0X
0V
0>!
0;!
1"!
0|
0/!
0(!
#850000
b10000001 #
1R
1?!
1<!
15!
1(!
1%!
1}
1@!
1=!
17!
0~
0@
0J
0L
0M
00
01
04
0/
#875000
b10010001 #
1V
1>!
0(!
0%!
#900000
b10010011 #
b10010010 #
1P
0R
0?!
0<!
18!
05!
1(!
1%!
1!!
0@!
0=!
1:!
07!
1#!
zA
1J
0K
1L
1M
10
11
02
14
z.
#910000
b10110010 #
b10100010 #
1X
0V
0>!
1;!
0(!
0%!
#945000
b10110010 #
1V
0;!
16!
1/!
1(!
1Y
#950000
b10110011 #
1R
1?!
08!
0/!
0(!
1@!
0:!
1K
0M
00
12
#980000
b11110011 #
b11010011 #
b11000011 #
1U
0X
0V
19!
1|
1(!
1%!
