Lab/Lab4/simulation/qsim/LogicalStep_Lab4.msim.vcd
$comment
	File created using the following command:
		vcd file LogicalStep_Lab4.msim.vcd -direction
$end
$date
	Fri Mar 16 17:01:42 2018
$end
$version
	ModelSim Version 10.4b
$end
$timescale
	1ps
$end

$scope module LogicalStep_Lab4_top_vlg_vec_tst $end
$var reg 1 ! clkin_50 $end
$var reg 4 " pb [3:0] $end
$var reg 1 # rst_n $end
$var reg 8 $ sw [7:0] $end
$var wire 1 % leds [7] $end
$var wire 1 & leds [6] $end
$var wire 1 ' leds [5] $end
$var wire 1 ( leds [4] $end
$var wire 1 ) leds [3] $end
$var wire 1 * leds [2] $end
$var wire 1 + leds [1] $end
$var wire 1 , leds [0] $end
$var wire 1 - seg7_char1 $end
$var wire 1 . seg7_char2 $end
$var wire 1 / seg7_data [6] $end
$var wire 1 0 seg7_data [5] $end
$var wire 1 1 seg7_data [4] $end
$var wire 1 2 seg7_data [3] $end
$var wire 1 3 seg7_data [2] $end
$var wire 1 4 seg7_data [1] $end
$var wire 1 5 seg7_data [0] $end

$scope module i1 $end
$var wire 1 6 gnd $end
$var wire 1 7 vcc $end
$var wire 1 8 unknown $end
$var tri1 1 9 devclrn $end
$var tri1 1 : devpor $end
$var tri1 1 ; devoe $end
$var wire 1 < pb[2]~input_o $end
$var wire 1 = pb[3]~input_o $end
$var wire 1 > sw[0]~input_o $end
$var wire 1 ? sw[1]~input_o $end
$var wire 1 @ sw[2]~input_o $end
$var wire 1 A sw[3]~input_o $end
$var wire 1 B sw[4]~input_o $end
$var wire 1 C sw[5]~input_o $end
$var wire 1 D sw[6]~input_o $end
$var wire 1 E sw[7]~input_o $end
$var wire 1 F leds[0]~output_o $end
$var wire 1 G leds[1]~output_o $end
$var wire 1 H leds[2]~output_o $end
$var wire 1 I leds[3]~output_o $end
$var wire 1 J leds[4]~output_o $end
$var wire 1 K leds[5]~output_o $end
$var wire 1 L leds[6]~output_o $end
$var wire 1 M leds[7]~output_o $end
$var wire 1 N seg7_data[0]~output_o $end
$var wire 1 O seg7_data[1]~output_o $end
$var wire 1 P seg7_data[2]~output_o $end
$var wire 1 Q seg7_data[3]~output_o $end
$var wire 1 R seg7_data[4]~output_o $end
$var wire 1 S seg7_data[5]~output_o $end
$var wire 1 T seg7_data[6]~output_o $end
$var wire 1 U seg7_char1~output_o $end
$var wire 1 V seg7_char2~output_o $end
$var wire 1 W clkin_50~input_o $end
$var wire 1 X bincounter4bit|ud_bin_counter[0]~8_combout $end
$var wire 1 Y rst_n~input_o $end
$var wire 1 Z pb[1]~input_o $end
$var wire 1 [ pb[0]~input_o $end
$var wire 1 \ bincounter4bit|process_0~0_combout $end
$var wire 1 ] bincounter4bit|ud_bin_counter[0]~9 $end
$var wire 1 ^ bincounter4bit|ud_bin_counter[1]~10_combout $end
$var wire 1 _ bincounter4bit|ud_bin_counter[1]~11 $end
$var wire 1 ` bincounter4bit|ud_bin_counter[2]~12_combout $end
$var wire 1 a bincounter4bit|ud_bin_counter[2]~13 $end
$var wire 1 b bincounter4bit|ud_bin_counter[3]~14_combout $end
$var wire 1 c bincounter4bit|ud_bin_counter[3]~15 $end
$var wire 1 d bincounter4bit|ud_bin_counter[4]~16_combout $end
$var wire 1 e bincounter4bit|ud_bin_counter[4]~17 $end
$var wire 1 f bincounter4bit|ud_bin_counter[5]~18_combout $end
$var wire 1 g bincounter4bit|ud_bin_counter[5]~19 $end
$var wire 1 h bincounter4bit|ud_bin_counter[6]~20_combout $end
$var wire 1 i bincounter4bit|ud_bin_counter[6]~21 $end
$var wire 1 j bincounter4bit|ud_bin_counter[7]~22_combout $end
$var wire 1 k bincounter4bit|ud_bin_counter [7] $end
$var wire 1 l bincounter4bit|ud_bin_counter [6] $end
$var wire 1 m bincounter4bit|ud_bin_counter [5] $end
$var wire 1 n bincounter4bit|ud_bin_counter [4] $end
$var wire 1 o bincounter4bit|ud_bin_counter [3] $end
$var wire 1 p bincounter4bit|ud_bin_counter [2] $end
$var wire 1 q bincounter4bit|ud_bin_counter [1] $end
$var wire 1 r bincounter4bit|ud_bin_counter [0] $end
$upscope $end
$upscope $end
$enddefinitions $end
#0
$dumpvars
0!
bx11 "
0#
bx $
0,
0+
0*
0)
0(
0'
0&
0%
0-
0.
05
04
03
02
01
00
0/
06
17
x8
19
1:
1;
x<
x=
x>
x?
x@
xA
xB
xC
xD
xE
0F
0G
0H
0I
0J
0K
0L
0M
0N
0O
0P
0Q
0R
0S
0T
0U
0V
0W
1X
0Y
1Z
1[
1\
0]
0^
1_
0`
0a
0b
1c
0d
0e
0f
1g
0h
0i
0j
0r
0q
0p
0o
0n
0m
0l
0k
$end
#20000
1!
1W
#40000
0!
0W
#60000
1!
1W
#80000
0!
0W
#100000
1!
1W
#120000
0!
0W
#140000
1!
1W
#160000
1#
0!
1Y
0W
#180000
1!
1W
1r
1F
1]
1,
0X
1^
#200000
0!
0W
#220000
1!
1W
1q
0r
0F
1G
0_
0]
1+
0,
0^
1X
1_
1`
1^
0`
#240000
0!
0W
#260000
1!
1W
1r
1F
1]
1,
0X
0_
0^
1`
#280000
0!
0W
#300000
1!
1W
1p
0q
0r
0F
0G
1H
1a
1_
0]
1*
0+
0,
0`
1^
1X
0a
1b
1`
0^
0b
#320000
0!
0W
#340000
1!
1W
1r
1F
1]
1,
0X
1^
#360000
0!
0W
#380000
1!
1W
1q
0r
0F
1G
0_
0]
1+
0,
0^
1X
1a
1_
0`
1^
0a
1b
1`
0b
#400000
0!
0W
#420000
1!
1W
1r
1F
1]
1,
0X
0_
0^
1a
0`
1b
#440000
0!
0W
#460000
1!
1W
1o
0p
0q
0r
0F
0G
0H
1I
0c
0a
1_
0]
1)
0*
0+
0,
0b
1`
1^
1X
1c
1d
1b
0`
0^
0d
#480000
0!
0W
#500000
1!
1W
1r
1F
1]
1,
0X
1^
#520000
0!
0W
#540000
1!
1W
1q
0r
0F
1G
0_
0]
1+
0,
0^
1X
1_
1`
1^
0`
#560000
0!
0W
#580000
1!
1W
1r
1F
1]
1,
0X
0_
0^
1`
#600000
0!
0W
#620000
1!
1W
1p
0q
0r
0F
0G
1H
1a
1_
0]
1*
0+
0,
0`
1^
1X
0c
0a
0b
1`
0^
1c
1d
1b
0d
#640000
0!
0W
#660000
1!
1W
1r
1F
1]
1,
0X
1^
#680000
0!
0W
#700000
1!
1W
1q
0r
0F
1G
0_
0]
1+
0,
0^
1X
1a
1_
0`
1^
0c
0a
0b
1`
1c
1d
1b
0d
#720000
0!
0W
#740000
1!
1W
1r
1F
1]
1,
0X
0_
0^
1a
0`
0c
0b
1d
#760000
0!
0W
#780000
1!
1W
1n
0o
0p
0q
0r
0F
0G
0H
0I
1J
1e
1c
0a
1_
0]
1(
0)
0*
0+
0,
0d
1b
1`
1^
1X
0e
1f
1d
0b
0`
0^
0f
#800000
0!
0W
#820000
1!
1W
1r
1F
1]
1,
0X
1^
#840000
0!
0W
#860000
1!
1W
1q
0r
0F
1G
0_
0]
1+
0,
0^
1X
1_
1`
1^
0`
#880000
0!
0W
#900000
1!
1W
1r
1F
1]
1,
0X
0_
0^
1`
#920000
0!
0W
#940000
1!
1W
1p
0q
0r
0F
0G
1H
1a
1_
0]
1*
0+
0,
0`
1^
1X
0a
1b
1`
0^
0b
#960000
0!
0W
#980000
1!
1W
1r
1F
1]
1,
0X
1^
#1000000
0!
0W
#1020000
1!
1W
1q
0r
0F
1G
0_
0]
1+
0,
0^
1X
1a
1_
0`
1^
0a
1b
1`
0b
#1040000
0!
0W
#1060000
1!
1W
1r
1F
1]
1,
0X
0_
0^
1a
0`
1b
#1080000
0!
0W
#1100000
1!
1W
1o
0p
0q
0r
0F
0G
0H
1I
0c
0a
1_
0]
1)
0*
0+
0,
0b
1`
1^
1X
1e
1c
0d
1b
0`
0^
0e
1f
1d
0f
#1120000
0!
0W
#1140000
1!
1W
1r
1F
1]
1,
0X
1^
#1160000
0!
0W
#1180000
1!
1W
1q
0r
0F
1G
0_
0]
1+
0,
0^
1X
1_
1`
1^
0`
#1200000
0!
0W
#1220000
1!
1W
1r
1F
1]
1,
0X
0_
0^
1`
#1240000
0!
0W
#1260000
1!
1W
1p
0q
0r
0F
0G
1H
1a
1_
0]
1*
0+
0,
0`
1^
1X
0c
0a
0b
1`
0^
1e
1c
0d
1b
0e
1f
1d
0f
#1280000
0!
0W
#1300000
1!
1W
1r
1F
1]
1,
0X
1^
#1320000
0!
0W
#1340000
1!
1W
1q
0r
0F
1G
0_
0]
1+
0,
0^
1X
1a
1_
0`
1^
0c
0a
0b
1`
1e
1c
0d
1b
0e
1f
1d
0f
#1360000
0!
0W
#1380000
1!
1W
1r
1F
1]
1,
0X
0_
0^
1a
0`
0c
0b
1e
0d
1f
#1400000
0!
0W
#1420000
1!
1W
1m
0n
0o
0p
0q
0r
0F
0G
0H
0I
0J
1K
0g
0e
1c
0a
1_
0]
1'
0(
0)
0*
0+
0,
0f
1d
1b
1`
1^
1X
1g
1h
1f
0d
0b
0`
0^
0h
#1440000
bx10 "
0!
0[
0W
0\
0g
1j
1h
0f
1d
1b
1`
1^
1i
0h
0j
#1460000
1!
1W
0m
1n
1o
1p
1q
1r
1F
1G
1H
1I
1J
0K
1g
1e
0c
1a
0_
1]
0'
1(
1)
1*
1+
1,
1f
0d
0b
0`
0^
0X
0i
0g
1h
0f
1d
1b
1`
1^
1i
1j
0h
0j
#1480000
0!
0W
#1500000
1!
1W
0r
0F
0]
0,
1X
0^
#1520000
0!
0W
#1540000
1!
1W
0q
1r
1F
0G
1_
1]
0+
1,
1^
0X
0_
0`
0^
1`
#1560000
0!
0W
#1580000
1!
1W
0r
0F
0]
0,
1X
1_
1^
0`
#1600000
0!
0W
#1620000
1!
1W
0p
1q
1r
1F
1G
0H
0a
0_
1]
0*
1+
1,
1`
0^
0X
1a
0b
0`
1^
1b
#1640000
0!
0W
#1660000
1!
1W
0r
0F
0]
0,
1X
0^
#1680000
0!
0W
#1700000
1!
1W
0q
1r
1F
0G
1_
1]
0+
1,
1^
0X
0a
0_
1`
0^
1a
0b
0`
1b
#1720000
0!
0W
#1740000
1!
1W
0r
0F
0]
0,
1X
1_
1^
0a
1`
0b
#1760000
0!
0W
#1780000
1!
1W
0o
1p
1q
1r
1F
1G
1H
0I
1c
1a
0_
1]
0)
1*
1+
1,
1b
0`
0^
0X
0c
0d
0b
1`
1^
1d
#1800000
0!
0W
#1820000
1!
1W
0r
0F
0]
0,
1X
0^
#1840000
0!
0W
#1860000
1!
1W
0q
1r
1F
0G
1_
1]
0+
1,
1^
0X
0_
0`
0^
1`
#1880000
0!
0W
#1900000
1!
1W
0r
0F
0]
0,
1X
1_
1^
0`
#1920000
0!
0W
#1940000
1!
1W
0p
1q
1r
1F
1G
0H
0a
0_
1]
0*
1+
1,
1`
0^
0X
1c
1a
1b
0`
1^
0c
0d
0b
1d
#1960000
0!
0W
#1980000
1!
1W
0r
0F
0]
0,
1X
0^
